{
  "selfDescriptionCredential": {
    "@context": [
      "http://www.w3.org/ns/shacl#",
      "http://www.w3.org/2001/XMLSchema#",
      "http://w3id.org/gaia-x/resource#",
      "http://w3id.org/gaia-x/participant#",
      "http://w3id.org/gaia-x/service-offering#"
    ],
    "@id": "https://arlabdevelopments.com/.well-known/infrastructure/ProCloud.json",
    "@type": [
      "VerifiableCredential",
      "ServiceOfferingExperimental"
    ],
    "credentialSubject": {
      "id": "https://arlabdevelopments.com/.well-known/infrastructure/ProCloud.json",
      "gx-service-offering:providedBy": {
        "@type": "xsd:string",
        "@value": "https://arlabdevelopments.com/.well-known/ArsysLab.json"
      },
      "gx-service-offering:name": {
        "@value": "Pro Cloud",
        "@type": "xsd:string"
      },
      "gx-service-offering:description": {
        "@value": "Arsys Cloud Server - Pro model",
        "@type": "xsd:string"
      },
      "gx-service-offering:minRamsize": {
        "@type": "gx-service-offering:measure",
        "gx-service-offering:Value": {
          "@value": "0.5",
          "@type": "xsd:float"
        },
        "gx-service-offering:Unit": {
          "@value": "GB",
          "@type": "xsd:string"
        }
      },
      "gx-service-offering:maxRamsize": {
        "@type": "gx-service-offering:measure",
        "gx-service-offering:Value": {
          "@value": "32",
          "@type": "xsd:int"
        },
        "gx-service-offering:Unit": {
          "@value": "GB",
          "@type": "xsd:string"
        }
      },
      "gx-service-offering:minDisk": {
        "@type": "gx-service-offering:measure",
        "gx-service-offering:Value": {
          "@value": "10",
          "@type": "xsd:int"
        },
        "gx-service-offering:Unit": {
          "@value": "GB",
          "@type": "xsd:string"
        },
        "gx-service-offering:description": {
          "@value": "SSD (Solid State Drives)",
          "@type": "xsd:string"
        }
      },
      "gx-service-offering:maxDisk": {
        "@type": "gx-service-offering:measure",
        "gx-service-offering:Value": {
          "@value": "500",
          "@type": "xsd:int"
        },
        "gx-service-offering:Unit": {
          "@value": "GB",
          "@type": "xsd:string"
        },
        "gx-service-offering:description": {
          "@value": "SSD (Solid State Drives)",
          "@type": "xsd:string"
        }
      },
      "gx-service-offering:minCpu": {
        "@type": "gx-service-offering:measure",
        "gx-service-offering:Value": {
          "@value": "1",
          "@type": "xsd:int"
        },
        "gx-service-offering:description": {
          "@value": "vCPU Intel Xeon",
          "@type": "xsd:string"
        }
      },
      "gx-service-offering:maxCpu": {
        "@type": "gx-service-offering:measure",
        "gx-service-offering:Value": {
          "@value": "8",
          "@type": "xsd:int"
        },
        "gx-service-offering:description": {
          "@value": "vCPU Intel Xeon",
          "@type": "xsd:string"
        }
      },
      "gx-service-offering:minIpv4": {
        "@type": "gx-service-offering:measure",
        "gx-service-offering:Value": {
          "@value": "1",
          "@type": "xsd:int"
        }
      },
      "gx-service-offering:mazIpv4": {
        "@type": "gx-service-offering:measure",
        "gx-service-offering:Value": {
          "@value": "4",
          "@type": "xsd:int"
        }
      },
      "gx-service-offering:termsAndConditions": [
        {
          "@type": "gx-service-offering:TermsAndConditions",
          "gx-service-offering:url": "https://www.arsys.es/terms/condiciones-30-cloud-pro-o-cloud-avanzado",
          "gx-service-offering:hash": "A24A957D8B3146606CB3DC65801BEBB0C5C3203AEC3259BD0533B48BD557D170"
        }
      ],
      "gx-service-offering:webAddress": {
        "@value": "https://www.arsys.es/servidores/cloud",
        "@type": "xsd:anyURI"
      },
      "gx-service-offering:hostedOn": [
        {
          "@type": "xsd:string",
          "@value": "https://arlabdevelopments.com/.well-known/datacenter/serviceDatacenterEs.json"
        },
        {
          "@type": "xsd:string",
          "@value": "https://arlabdevelopments.com/.well-known/datacenter/serviceDatacenterDe.json"
        }
      ],
      "gx-service-offering:gdpr": [
        {
          "@type": "xsd:anyURI",
          "gx-service-offering:imprint": "https://www.arsys.es/legal"
        },
        {
          "@type": "xsd:anyURI",
          "gx-service-offering:privacyPolicy": "https://www.arsys.net/terms/personal-data-protection"
        }
      ]
    },
    "proof": {
      "type": "JsonWebKey2020",
      "created": "2022-07-25T12:10:09.290Z",
      "proofPurpose": "assertionMethod",
      "verificationMethod": "did:web:arlabdevelopments.com",
      "jws": "eyJhbGciOiJQUzI1NiIsImI2NCI6ZmFsc2UsImNyaXQiOlsiYjY0Il19..EtN4X1YojwMtltaJQ31WyOa_o7-QQWzA1KJXShZwAcubXBjt3EOCV6D9Frq8jC3dsfav3QVJP2UkaQGE3KR5ZFiZNvsa39nHDA0ookvD0JOVEBuyd6ZpOGBLkhMaGbl2_l5MwWG_waPURgXIEgJ_uNHuezAPOOwhueIGjzQqSBF2Ol6Tc4u7LvAcSdP9-Mu0u1bGm0aRN77uyLYcLFhqos7q_hpE0gLmFg-5_lzv5f96Rrj2weQ_KoEw-aGoBxGRhrV1nklI-us4q013wYdbZLiKIWWRTTnEKPR0XGkNBhuH3PiaoJjCWEvWttFi3gLznzxbSJFFzTd6OU7W4mlc6A"
    }
  },
  "complianceCredential": {
    "@context": [
      "https://www.w3.org/2018/credentials/v1"
    ],
    "@type": [
      "VerifiableCredential",
      "ServiceOfferingCredentialExperimental"
    ],
    "id": "https://catalogue.gaia-x.eu/credentials/ServiceOfferingCredentialExperimental/1658751015142",
    "issuer": "did:web:compliance.gaia-x.eu",
    "issuanceDate": "2022-07-25T12:10:15.142Z",
    "credentialSubject": {
      "id": "https://arlabdevelopments.com/.well-known/infrastructure/ProCloud.json",
      "hash": "a7df587f8d158595ca484543871a5806999eca4eaf43e6326f9bb6de9c96e374"
    },
    "proof": {
      "type": "JsonWebKey2020",
      "created": "2022-07-25T12:10:15.142Z",
      "proofPurpose": "assertionMethod",
      "jws": "eyJhbGciOiJQUzI1NiIsImI2NCI6ZmFsc2UsImNyaXQiOlsiYjY0Il19..Fb8IgdwZTKhsbOJUB49fiukALNpqkQ1HPLbQ33gQ1BLKOszcy9RHP1OujUWmQmvVznhGgOkaZqp-tyZuPXZSNA0l8-ogUh0iUD7FtdQsaKAgLOMlRINQbsxccGNJMI7K6n7lKj97AL_Xa2BPLb080UCZhWEUxLK37hhOnf51pYu_yuWW-I_kAjyNgBZHijEkXyBLv-8jPFjPll8PUwHzYVxEJ7PvuqzbTXQW-JgFe0gfQKtOCw3vo46eQIh-giaAeyaetSFdmcd9Ux7mgYo7JPMlUtW14uxf2yloNFJs-_sEp8xP0t0q_RK5RxUxYk8XWm1fqPc7lYtj2PHaK1cXdA",
      "verificationMethod": "did:web:compliance.gaia-x.eu"
    }
  }
}